…
#### Giving the dimension (rows x columns) of the resulting dataset. Are these data tidy?

There are 1,868 rows and 20 columns in the resulting dataset. And these
data is not tidy since the route number should be a variable. So, we
would need to convert `Route` variables from wide to long format.

### Answer following questions

``` r
NYC_transit %>% 
  select(station_name, line) %>% 
  distinct
```

    ## # A tibble: 465 × 2
    ##    station_name             line    
    ##    <chr>                    <chr>   
    ##  1 25th St                  4 Avenue
    ##  2 36th St                  4 Avenue
    ##  3 45th St                  4 Avenue
    ##  4 53rd St                  4 Avenue
    ##  5 59th St                  4 Avenue
    ##  6 77th St                  4 Avenue
    ##  7 86th St                  4 Avenue
    ##  8 95th St                  4 Avenue
    ##  9 9th St                   4 Avenue
    ## 10 Atlantic Av-Barclays Ctr 4 Avenue
    ## # … with 455 more rows

``` r
NYC_transit %>% 
    filter(ada == TRUE) %>% 
  select(station_name, line) %>% 
  distinct
```

    ## # A tibble: 84 × 2
    ##    station_name                   line           
    ##    <chr>                          <chr>          
    ##  1 Atlantic Av-Barclays Ctr       4 Avenue       
    ##  2 DeKalb Av                      4 Avenue       
    ##  3 Pacific St                     4 Avenue       
    ##  4 Grand Central                  42nd St Shuttle
    ##  5 34th St                        6 Avenue       
    ##  6 47-50th Sts Rockefeller Center 6 Avenue       
    ##  7 Church Av                      6 Avenue       
    ##  8 21st St                        63rd Street    
    ##  9 Lexington Av                   63rd Street    
    ## 10 Roosevelt Island               63rd Street    
    ## # … with 74 more rows
…
    ## [1] 0.3770492

``` r
NYC_transit %>% 
  pivot_longer(
    route1:route11,
    names_to = "route_num",
    values_to = "route") %>% 
  filter(route == "A") %>% 
  select(station_name, line) %>% 
  distinct
```

    ## # A tibble: 60 × 2
    ##    station_name                  line           
    ##    <chr>                         <chr>          
    ##  1 Times Square                  42nd St Shuttle
    ##  2 125th St                      8 Avenue       
    ##  3 145th St                      8 Avenue       
    ##  4 14th St                       8 Avenue       
    ##  5 168th St - Washington Heights 8 Avenue       
    ##  6 175th St                      8 Avenue       
    ##  7 181st St                      8 Avenue       
    ##  8 190th St                      8 Avenue       
    ##  9 34th St                       8 Avenue       
    ## 10 42nd St                       8 Avenue       
    ## # … with 50 more rows
…
``` r
pols_month_tidy = subset(pols_month, select = -c(prez_dem, 
                                                prez_gop,
                                                day) ) %>% 
  mutate(year = as.numeric(year))

pols_month_tidy
```

    ## # A tibble: 822 × 9
    ##     year month gov_gop sen_gop rep_gop gov_dem sen_dem rep_dem president
    ##    <dbl> <chr>   <dbl>   <dbl>   <dbl>   <dbl>   <dbl>   <dbl> <chr>    
    ##  1  1947 Jan        23      51     253      23      45     198 dem      
    ##  2  1947 Feb        23      51     253      23      45     198 dem      
    ##  3  1947 Mar        23      51     253      23      45     198 dem      
    ##  4  1947 Apr        23      51     253      23      45     198 dem      
    ##  5  1947 May        23      51     253      23      45     198 dem      
    ##  6  1947 Jun        23      51     253      23      45     198 dem      
    ##  7  1947 Jul        23      51     253      23      45     198 dem      
    ##  8  1947 Aug        23      51     253      23      45     198 dem      
    ##  9  1947 Sep        23      51     253      23      45     198 dem      
    ## 10  1947 Oct        23      51     253      23      45     198 dem      
    ## # … with 812 more rows
…
``` r
snp_tidy = subset(snp, select = -c(day)) %>% 
  select(year, month, close) %>% 
  mutate(year = as.numeric(year))

  snp_tidy
```

    ## # A tibble: 787 × 3
    ##     year month close
    ##    <dbl> <chr> <dbl>
    ##  1    15 Jul   2080.
    ##  2    15 Jun   2063.
    ##  3    15 May   2107.
    ##  4    15 Apr   2086.
    ##  5    15 Mar   2068.
    ##  6    15 Feb   2104.
    ##  7    15 Jan   1995.
    ##  8    14 Dec   2059.
    ##  9    14 Nov   2068.
    ## 10    14 Oct   2018.
    ## # … with 777 more rows
…
``` r
unem_tidy =
  pivot_longer(
    unem, 
    jan:dec,
    names_to = "month",
    values_to = " percentage"
  ) %>% 
    mutate( year = as.numeric(year))

unem_tidy 
```

    ## # A tibble: 816 × 3
    ##     year month ` percentage`
    ##    <dbl> <chr>         <dbl>
    ##  1  1948 jan             3.4
    ##  2  1948 feb             3.8
    ##  3  1948 mar             4  
    ##  4  1948 apr             3.9
    ##  5  1948 may             3.5
    ##  6  1948 jun             3.6
    ##  7  1948 jul             3.6
    ##  8  1948 aug             3.9
    ##  9  1948 sep             3.8
    ## 10  1948 oct             3.7
    ## # … with 806 more rows
…
